%YAML 1.1
%TAG !u! tag:unity3d.com,2011:
--- !u!1 &4148357013814525428
GameObject:
  m_ObjectHideFlags: 0
  m_CorrespondingSourceObject: {fileID: 0}
  m_PrefabInstance: {fileID: 0}
  m_PrefabAsset: {fileID: 0}
  serializedVersion: 6
  m_Component:
  - component: {fileID: 8074819490313631816}
  - component: {fileID: 7478687756751480436}
  - component: {fileID: 2865802828829667940}
  - component: {fileID: 1178750576486936065}
  m_Layer: 0
  m_Name: Coins 3
  m_TagString: Untagged
  m_Icon: {fileID: 0}
  m_NavMeshLayer: 0
  m_StaticEditorFlags: 0
  m_IsActive: 1
--- !u!4 &8074819490313631816
Transform:
  m_ObjectHideFlags: 0
  m_CorrespondingSourceObject: {fileID: 0}
  m_PrefabInstance: {fileID: 0}
  m_PrefabAsset: {fileID: 0}
  m_GameObject: {fileID: 4148357013814525428}
  serializedVersion: 2
  m_LocalRotation: {x: 0, y: 0, z: 0, w: 1}
  m_LocalPosition: {x: 0, y: 2, z: 0}
  m_LocalScale: {x: 1, y: 1, z: 1}
  m_ConstrainProportionsScale: 0
  m_Children:
  - {fileID: 4638833477416696165}
  - {fileID: 2705032892521443365}
  - {fileID: 6190355566834306688}
  m_Father: {fileID: 0}
  m_LocalEulerAnglesHint: {x: 0, y: 0, z: 0}
--- !u!114 &7478687756751480436
MonoBehaviour:
  m_ObjectHideFlags: 0
  m_CorrespondingSourceObject: {fileID: 0}
  m_PrefabInstance: {fileID: 0}
  m_PrefabAsset: {fileID: 0}
  m_GameObject: {fileID: 4148357013814525428}
  m_Enabled: 1
  m_EditorHideFlags: 0
  m_Script: {fileID: 11500000, guid: 96adde6a738996046bec73cb975b92da, type: 3}
  m_Name: 
  m_EditorClassIdentifier: 
  syncDirection: 0
  syncMode: 0
  syncInterval: 0
  soundTrigger: {fileID: 0}
  distanceBefore: 5
  spawningHeightModifier: 2.41
  numCoins: 3
--- !u!114 &2865802828829667940
MonoBehaviour:
  m_ObjectHideFlags: 0
  m_CorrespondingSourceObject: {fileID: 0}
  m_PrefabInstance: {fileID: 0}
  m_PrefabAsset: {fileID: 0}
  m_GameObject: {fileID: 4148357013814525428}
  m_Enabled: 1
  m_EditorHideFlags: 0
  m_Script: {fileID: 11500000, guid: 8ff3ba0becae47b8b9381191598957c8, type: 3}
  m_Name: 
  m_EditorClassIdentifier: 
  syncDirection: 0
  syncMode: 0
  syncInterval: 0
  target: {fileID: 8074819490313631816}
  clientAuthority: 0
  syncPosition: 1
  syncRotation: 1
  syncScale: 0
  interpolatePosition: 1
  interpolateRotation: 1
  interpolateScale: 1
  coordinateSpace: 0
  sendIntervalMultiplier: 1
  timelineOffset: 0
  showGizmos: 0
  showOverlay: 0
  overlayColor: {r: 0, g: 0, b: 0, a: 0.5}
  onlySyncOnChange: 1
  onlySyncOnChangeCorrectionMultiplier: 2
  rotationSensitivity: 0.01
  compressRotation: 0
  positionPrecision: 0.01
  scalePrecision: 0.01
--- !u!114 &1178750576486936065
MonoBehaviour:
  m_ObjectHideFlags: 0
  m_CorrespondingSourceObject: {fileID: 0}
  m_PrefabInstance: {fileID: 0}
  m_PrefabAsset: {fileID: 0}
  m_GameObject: {fileID: 4148357013814525428}
  m_Enabled: 1
  m_EditorHideFlags: 0
  m_Script: {fileID: 11500000, guid: 9b91ecbcc199f4492b9a91e820070131, type: 3}
  m_Name: 
  m_EditorClassIdentifier: 
  sceneId: 0
  _assetId: 2145619691
  serverOnly: 0
  visible: 0
  hasSpawned: 0
--- !u!1001 &1706210496737560431
PrefabInstance:
  m_ObjectHideFlags: 0
  serializedVersion: 2
  m_Modification:
    serializedVersion: 3
    m_TransformParent: {fileID: 8074819490313631816}
    m_Modifications:
    - target: {fileID: 3614024890009073482, guid: 4d1fdf2d47de3a44d979e0f977268d25, type: 3}
      propertyPath: m_LocalScale.z
      value: 0.25
      objectReference: {fileID: 0}
    - target: {fileID: 3614024890009073482, guid: 4d1fdf2d47de3a44d979e0f977268d25, type: 3}
      propertyPath: m_LocalPosition.x
      value: -5.945
      objectReference: {fileID: 0}
    - target: {fileID: 3614024890009073482, guid: 4d1fdf2d47de3a44d979e0f977268d25, type: 3}
      propertyPath: m_LocalPosition.y
      value: -0.34899998
      objectReference: {fileID: 0}
    - target: {fileID: 3614024890009073482, guid: 4d1fdf2d47de3a44d979e0f977268d25, type: 3}
      propertyPath: m_LocalPosition.z
      value: 0
      objectReference: {fileID: 0}
    - target: {fileID: 3614024890009073482, guid: 4d1fdf2d47de3a44d979e0f977268d25, type: 3}
      propertyPath: m_LocalRotation.w
      value: 0.7071068
      objectReference: {fileID: 0}
    - target: {fileID: 3614024890009073482, guid: 4d1fdf2d47de3a44d979e0f977268d25, type: 3}
      propertyPath: m_LocalRotation.x
      value: -0.7071068
      objectReference: {fileID: 0}
    - target: {fileID: 3614024890009073482, guid: 4d1fdf2d47de3a44d979e0f977268d25, type: 3}
      propertyPath: m_LocalRotation.y
      value: -0
      objectReference: {fileID: 0}
    - target: {fileID: 3614024890009073482, guid: 4d1fdf2d47de3a44d979e0f977268d25, type: 3}
      propertyPath: m_LocalRotation.z
      value: -0
      objectReference: {fileID: 0}
    - target: {fileID: 3614024890009073482, guid: 4d1fdf2d47de3a44d979e0f977268d25, type: 3}
      propertyPath: m_LocalEulerAnglesHint.x
      value: -90
      objectReference: {fileID: 0}
    - target: {fileID: 3614024890009073482, guid: 4d1fdf2d47de3a44d979e0f977268d25, type: 3}
      propertyPath: m_LocalEulerAnglesHint.y
      value: 0
      objectReference: {fileID: 0}
    - target: {fileID: 3614024890009073482, guid: 4d1fdf2d47de3a44d979e0f977268d25, type: 3}
      propertyPath: m_LocalEulerAnglesHint.z
      value: 0
      objectReference: {fileID: 0}
    - target: {fileID: 3614024890009073482, guid: 4d1fdf2d47de3a44d979e0f977268d25, type: 3}
      propertyPath: m_ConstrainProportionsScale
      value: 0
      objectReference: {fileID: 0}
    - target: {fileID: 6661936647316990669, guid: 4d1fdf2d47de3a44d979e0f977268d25, type: 3}
      propertyPath: m_Name
      value: Coin (1)
      objectReference: {fileID: 0}
    m_RemovedComponents: []
    m_RemovedGameObjects: []
    m_AddedGameObjects: []
    m_AddedComponents: []
  m_SourcePrefab: {fileID: 100100000, guid: 4d1fdf2d47de3a44d979e0f977268d25, type: 3}
--- !u!4 &2705032892521443365 stripped
Transform:
  m_CorrespondingSourceObject: {fileID: 3614024890009073482, guid: 4d1fdf2d47de3a44d979e0f977268d25, type: 3}
  m_PrefabInstance: {fileID: 1706210496737560431}
  m_PrefabAsset: {fileID: 0}
--- !u!1001 &7480223800964708810
PrefabInstance:
  m_ObjectHideFlags: 0
  serializedVersion: 2
  m_Modification:
    serializedVersion: 3
    m_TransformParent: {fileID: 8074819490313631816}
    m_Modifications:
    - target: {fileID: 3614024890009073482, guid: 4d1fdf2d47de3a44d979e0f977268d25, type: 3}
      propertyPath: m_LocalScale.z
      value: 0.25
      objectReference: {fileID: 0}
    - target: {fileID: 3614024890009073482, guid: 4d1fdf2d47de3a44d979e0f977268d25, type: 3}
      propertyPath: m_LocalPosition.x
      value: -1.997
      objectReference: {fileID: 0}
    - target: {fileID: 3614024890009073482, guid: 4d1fdf2d47de3a44d979e0f977268d25, type: 3}
      propertyPath: m_LocalPosition.y
      value: 0.70300007
      objectReference: {fileID: 0}
    - target: {fileID: 3614024890009073482, guid: 4d1fdf2d47de3a44d979e0f977268d25, type: 3}
      propertyPath: m_LocalPosition.z
      value: 0
      objectReference: {fileID: 0}
    - target: {fileID: 3614024890009073482, guid: 4d1fdf2d47de3a44d979e0f977268d25, type: 3}
      propertyPath: m_LocalRotation.w
      value: 0.7071068
      objectReference: {fileID: 0}
    - target: {fileID: 3614024890009073482, guid: 4d1fdf2d47de3a44d979e0f977268d25, type: 3}
      propertyPath: m_LocalRotation.x
      value: -0.7071068
      objectReference: {fileID: 0}
    - target: {fileID: 3614024890009073482, guid: 4d1fdf2d47de3a44d979e0f977268d25, type: 3}
      propertyPath: m_LocalRotation.y
      value: -0
      objectReference: {fileID: 0}
    - target: {fileID: 3614024890009073482, guid: 4d1fdf2d47de3a44d979e0f977268d25, type: 3}
      propertyPath: m_LocalRotation.z
      value: -0
      objectReference: {fileID: 0}
    - target: {fileID: 3614024890009073482, guid: 4d1fdf2d47de3a44d979e0f977268d25, type: 3}
      propertyPath: m_LocalEulerAnglesHint.x
      value: -90
      objectReference: {fileID: 0}
    - target: {fileID: 3614024890009073482, guid: 4d1fdf2d47de3a44d979e0f977268d25, type: 3}
      propertyPath: m_LocalEulerAnglesHint.y
      value: 0
      objectReference: {fileID: 0}
    - target: {fileID: 3614024890009073482, guid: 4d1fdf2d47de3a44d979e0f977268d25, type: 3}
      propertyPath: m_LocalEulerAnglesHint.z
      value: 0
      objectReference: {fileID: 0}
    - target: {fileID: 3614024890009073482, guid: 4d1fdf2d47de3a44d979e0f977268d25, type: 3}
      propertyPath: m_ConstrainProportionsScale
      value: 0
      objectReference: {fileID: 0}
    - target: {fileID: 6661936647316990669, guid: 4d1fdf2d47de3a44d979e0f977268d25, type: 3}
      propertyPath: m_Name
      value: Coin (2)
      objectReference: {fileID: 0}
    m_RemovedComponents: []
    m_RemovedGameObjects: []
    m_AddedGameObjects: []
    m_AddedComponents: []
  m_SourcePrefab: {fileID: 100100000, guid: 4d1fdf2d47de3a44d979e0f977268d25, type: 3}
--- !u!4 &6190355566834306688 stripped
Transform:
  m_CorrespondingSourceObject: {fileID: 3614024890009073482, guid: 4d1fdf2d47de3a44d979e0f977268d25, type: 3}
  m_PrefabInstance: {fileID: 7480223800964708810}
  m_PrefabAsset: {fileID: 0}
--- !u!1001 &8234807751066619439
PrefabInstance:
  m_ObjectHideFlags: 0
  serializedVersion: 2
  m_Modification:
    serializedVersion: 3
    m_TransformParent: {fileID: 8074819490313631816}
    m_Modifications:
    - target: {fileID: 3614024890009073482, guid: 4d1fdf2d47de3a44d979e0f977268d25, type: 3}
      propertyPath: m_LocalScale.z
      value: 0.25
      objectReference: {fileID: 0}
    - target: {fileID: 3614024890009073482, guid: 4d1fdf2d47de3a44d979e0f977268d25, type: 3}
      propertyPath: m_LocalPosition.x
      value: -3.671
      objectReference: {fileID: 0}
    - target: {fileID: 3614024890009073482, guid: 4d1fdf2d47de3a44d979e0f977268d25, type: 3}
      propertyPath: m_LocalPosition.y
      value: 3
      objectReference: {fileID: 0}
    - target: {fileID: 3614024890009073482, guid: 4d1fdf2d47de3a44d979e0f977268d25, type: 3}
      propertyPath: m_LocalPosition.z
      value: 0
      objectReference: {fileID: 0}
    - target: {fileID: 3614024890009073482, guid: 4d1fdf2d47de3a44d979e0f977268d25, type: 3}
      propertyPath: m_LocalRotation.w
      value: 0.7071068
      objectReference: {fileID: 0}
    - target: {fileID: 3614024890009073482, guid: 4d1fdf2d47de3a44d979e0f977268d25, type: 3}
      propertyPath: m_LocalRotation.x
      value: -0.7071068
      objectReference: {fileID: 0}
    - target: {fileID: 3614024890009073482, guid: 4d1fdf2d47de3a44d979e0f977268d25, type: 3}
      propertyPath: m_LocalRotation.y
      value: -0
      objectReference: {fileID: 0}
    - target: {fileID: 3614024890009073482, guid: 4d1fdf2d47de3a44d979e0f977268d25, type: 3}
      propertyPath: m_LocalRotation.z
      value: -0
      objectReference: {fileID: 0}
    - target: {fileID: 3614024890009073482, guid: 4d1fdf2d47de3a44d979e0f977268d25, type: 3}
      propertyPath: m_LocalEulerAnglesHint.x
      value: -90
      objectReference: {fileID: 0}
    - target: {fileID: 3614024890009073482, guid: 4d1fdf2d47de3a44d979e0f977268d25, type: 3}
      propertyPath: m_LocalEulerAnglesHint.y
      value: 0
      objectReference: {fileID: 0}
    - target: {fileID: 3614024890009073482, guid: 4d1fdf2d47de3a44d979e0f977268d25, type: 3}
      propertyPath: m_LocalEulerAnglesHint.z
      value: 0
      objectReference: {fileID: 0}
    - target: {fileID: 3614024890009073482, guid: 4d1fdf2d47de3a44d979e0f977268d25, type: 3}
      propertyPath: m_ConstrainProportionsScale
      value: 0
      objectReference: {fileID: 0}
    - target: {fileID: 6661936647316990669, guid: 4d1fdf2d47de3a44d979e0f977268d25, type: 3}
      propertyPath: m_Name
      value: Coin
      objectReference: {fileID: 0}
    m_RemovedComponents: []
    m_RemovedGameObjects: []
    m_AddedGameObjects: []
    m_AddedComponents: []
  m_SourcePrefab: {fileID: 100100000, guid: 4d1fdf2d47de3a44d979e0f977268d25, type: 3}
--- !u!4 &4638833477416696165 stripped
Transform:
  m_CorrespondingSourceObject: {fileID: 3614024890009073482, guid: 4d1fdf2d47de3a44d979e0f977268d25, type: 3}
  m_PrefabInstance: {fileID: 8234807751066619439}
  m_PrefabAsset: {fileID: 0}
